^C:\USERS\11412240\DOCUMENTS\2019_T3_BASPROG2_GO\FINALE\FINALE\DEBUG\PLAYER.OBJ|C:\USERS\11412240\DOCUMENTS\2019_T3_BASPROG2_GO\FINALE\FINALE\DEBUG\POKEMON.OBJ|C:\USERS\11412240\DOCUMENTS\2019_T3_BASPROG2_GO\FINALE\FINALE\DEBUG\SOURCE.OBJ
C:\PROGRAM FILES (X86)\MICROSOFT VISUAL STUDIO\2017\ENTERPRISE\VC\TOOLS\MSVC\14.12.25827\BIN\HOSTX86\X86\LINK.EXE
C:\WINDOWS\GLOBALIZATION\SORTING\SORTDEFAULT.NLS
C:\PROGRAM FILES (X86)\WINDOWS KITS\10\LIB\10.0.16299.0\UM\X86\KERNEL32.LIB
C:\PROGRAM FILES (X86)\WINDOWS KITS\10\LIB\10.0.16299.0\UM\X86\USER32.LIB
C:\PROGRAM FILES (X86)\WINDOWS KITS\10\LIB\10.0.16299.0\UM\X86\GDI32.LIB
C:\PROGRAM FILES (X86)\WINDOWS KITS\10\LIB\10.0.16299.0\UM\X86\WINSPOOL.LIB
C:\PROGRAM FILES (X86)\WINDOWS KITS\10\LIB\10.0.16299.0\UM\X86\COMDLG32.LIB
C:\PROGRAM FILES (X86)\WINDOWS KITS\10\LIB\10.0.16299.0\UM\X86\ADVAPI32.LIB
C:\PROGRAM FILES (X86)\WINDOWS KITS\10\LIB\10.0.16299.0\UM\X86\SHELL32.LIB
C:\PROGRAM FILES (X86)\WINDOWS KITS\10\LIB\10.0.16299.0\UM\X86\OLE32.LIB
C:\PROGRAM FILES (X86)\WINDOWS KITS\10\LIB\10.0.16299.0\UM\X86\OLEAUT32.LIB
C:\PROGRAM FILES (X86)\WINDOWS KITS\10\LIB\10.0.16299.0\UM\X86\UUID.LIB
C:\PROGRAM FILES (X86)\WINDOWS KITS\10\LIB\10.0.16299.0\UM\X86\ODBC32.LIB
C:\PROGRAM FILES (X86)\WINDOWS KITS\10\LIB\10.0.16299.0\UM\X86\ODBCCP32.LIB
C:\USERS\11412240\DOCUMENTS\2019_T3_BASPROG2_GO\FINALE\FINALE\DEBUG\PLAYER.OBJ
C:\USERS\11412240\DOCUMENTS\2019_T3_BASPROG2_GO\FINALE\FINALE\DEBUG\POKEMON.OBJ
C:\USERS\11412240\DOCUMENTS\2019_T3_BASPROG2_GO\FINALE\FINALE\DEBUG\SOURCE.OBJ
C:\WINDOWS\SYSTEM32\TZRES.DLL
C:\PROGRAM FILES (X86)\MICROSOFT VISUAL STUDIO\2017\ENTERPRISE\VC\TOOLS\MSVC\14.12.25827\LIB\X86\MSVCPRTD.LIB
C:\PROGRAM FILES (X86)\MICROSOFT VISUAL STUDIO\2017\ENTERPRISE\VC\TOOLS\MSVC\14.12.25827\LIB\X86\MSVCRTD.LIB
C:\PROGRAM FILES (X86)\MICROSOFT VISUAL STUDIO\2017\ENTERPRISE\VC\TOOLS\MSVC\14.12.25827\LIB\X86\OLDNAMES.LIB
C:\PROGRAM FILES (X86)\MICROSOFT VISUAL STUDIO\2017\ENTERPRISE\VC\TOOLS\MSVC\14.12.25827\LIB\X86\VCRUNTIMED.LIB
C:\PROGRAM FILES (X86)\WINDOWS KITS\10\LIB\10.0.16299.0\UCRT\X86\UCRTD.LIB
